2 Week 1 | 02.522: Urban Data & Methods I: Computational Urban Analysis
…
month should probably be converted to a date

flat_type, storey_range and flat_model are currently chr columns but can better be represented as factor variables as they are categorical variables.

library(lubridate)
library(forcats)

sales %>% 
  mutate(month = ymd(month, truncated = 1),
         flat_type = as_factor(flat_type),
         storey_range = as_factor(storey_range),
         flat_model = as_factor(flat_model))

## # A tibble: 79,100 x 11
##    month      town  flat_type block street_name storey_range floor_area_sqm
##    <date>     <chr> <fct>     <chr> <chr>       <fct>                 <dbl>
##  1 2015-01-01 ANG … 3 ROOM    174   ANG MO KIO… 07 TO 09                 60
##  2 2015-01-01 ANG … 3 ROOM    541   ANG MO KIO… 01 TO 03                 68
##  3 2015-01-01 ANG … 3 ROOM    163   ANG MO KIO… 01 TO 03                 69
##  4 2015-01-01 ANG … 3 ROOM    446   ANG MO KIO… 01 TO 03                 68
##  5 2015-01-01 ANG … 3 ROOM    557   ANG MO KIO… 07 TO 09                 68
##  6 2015-01-01 ANG … 3 ROOM    603   ANG MO KIO… 07 TO 09                 67
##  7 2015-01-01 ANG … 3 ROOM    709   ANG MO KIO… 01 TO 03                 68
##  8 2015-01-01 ANG … 3 ROOM    333   ANG MO KIO… 01 TO 03                 68
##  9 2015-01-01 ANG … 3 ROOM    109   ANG MO KIO… 01 TO 03                 67
## 10 2015-01-01 ANG … 3 ROOM    564   ANG MO KIO… 13 TO 15                 68
## # … with 79,090 more rows, and 4 more variables: flat_model <fct>,
## #   lease_commence_date <dbl>, remaining_lease <dbl>, resale_price <dbl>
…
